{
    "name": "keycloak",
    "$schema": "../../../node_modules/nx/schemas/project-schema.json",
    "sourceRoot": "libs/angular/keycloak/src",
    "prefix": "myapp",
    "tags": [],
    "projectType": "library",
    "targets": {
        "test": {
            "executor": "@nrwl/jest:jest",
            "outputs": ["{workspaceRoot}/coverage/{projectRoot}"],
            "options": {
                "jestConfig": "libs/angular/keycloak/jest.config.ts",
                "passWithNoTests": true
            },
            "configurations": {
                "ci": {
                    "ci": true,
                    "codeCoverage": true
                }
            }
        },
        "lint": {
            "executor": "@nrwl/linter:eslint",
            "outputs": ["{options.outputFile}"],
            "options": {
                "lintFilePatterns": ["libs/angular/keycloak/**/*.ts", "libs/angular/keycloak/**/*.html"]
            }
        }
    }
}
