{
    "name": "enums",
    "$schema": "../../node_modules/nx/schemas/project-schema.json",
    "sourceRoot": "libs/enums/src",
    "projectType": "library",
    "targets": {
        "lint": {
            "executor": "@nrwl/linter:eslint",
            "outputs": ["{options.outputFile}"],
            "options": {
                "lintFilePatterns": ["libs/enums/**/*.ts"]
            }
        }
    },
    "tags": []
}
