{
    "name": "el-ui",
    "$schema": "../../node_modules/nx/schemas/project-schema.json",
    "projectType": "application",
    "sourceRoot": "apps/el-ui/src",
    "prefix": "myapp",
    "targets": {
        "build": {
            "executor": "@nrwl/angular:webpack-browser",
            "outputs": ["{options.outputPath}"],
            "options": {
                "customWebpackConfig": {
                    "path": "apps/el-ui/webpack.config.js"
                },
                "outputPath": "dist/apps/el-ui",
                "index": "apps/el-ui/src/index.html",
                "main": "apps/el-ui/src/main.ts",
                "polyfills": ["zone.js"],
                "tsConfig": "apps/el-ui/tsconfig.app.json",
                "inlineStyleLanguage": "scss",
                "assets": [
                    "apps/el-ui/src/favicon.ico",
                    "apps/el-ui/src/assets",
                    {
                        "glob": "**/*",
                        "input": "libs/i18n/src/translations",
                        "output": "./assets/i18n"
                    },
                    {
                        "glob": "**/*",
                        "input": "libs/resources/images",
                        "output": "./assets/images"
                    }
                ],
                "styles": [
                    {
                        "inject": false,
                        "input": "apps/el-ui/src/app/scss/light.scss",
                        "bundleName": "light"
                    },
                    {
                        "inject": false,
                        "input": "apps/el-ui/src/app/scss/dark.scss",
                        "bundleName": "dark"
                    }
                ],
                "scripts": []
            },
            "configurations": {
                "production": {
                    "budgets": [
                        {
                            "type": "initial",
                            "maximumWarning": "500kb",
                            "maximumError": "1mb"
                        },
                        {
                            "type": "anyComponentStyle",
                            "maximumWarning": "2kb",
                            "maximumError": "4kb"
                        }
                    ],
                    "outputHashing": "all"
                },
                "development": {
                    "buildOptimizer": false,
                    "optimization": false,
                    "vendorChunk": true,
                    "extractLicenses": false,
                    "sourceMap": true,
                    "namedChunks": true
                }
            },
            "defaultConfiguration": "production"
        },
        "serve": {
            "executor": "@nrwl/angular:webpack-dev-server",
            "configurations": {
                "production": {
                    "browserTarget": "el-ui:build:production"
                },
                "development": {
                    "browserTarget": "el-ui:build:development",
                    "disableHostCheck": true,
                    "publicHost": "https://www.myapp.dev",
                    "host": "0.0.0.0"
                }
            },
            "defaultConfiguration": "development"
        },
        "extract-i18n": {
            "executor": "@angular-devkit/build-angular:extract-i18n",
            "options": {
                "browserTarget": "el-ui:build"
            }
        },
        "lint": {
            "executor": "@nrwl/linter:eslint",
            "outputs": ["{options.outputFile}"],
            "options": {
                "lintFilePatterns": ["apps/el-ui/**/*.ts", "apps/el-ui/**/*.html"]
            }
        },
        "test": {
            "executor": "@nrwl/jest:jest",
            "outputs": ["{workspaceRoot}/coverage/{projectRoot}"],
            "options": {
                "jestConfig": "apps/el-ui/jest.config.ts",
                "passWithNoTests": true
            },
            "configurations": {
                "ci": {
                    "ci": true,
                    "codeCoverage": true
                }
            }
        }
    },
    "tags": []
}
