{
    "name": "el-api",
    "$schema": "../../node_modules/nx/schemas/project-schema.json",
    "sourceRoot": "apps/el-api/src",
    "projectType": "application",
    "targets": {
        "build": {
            "executor": "@nrwl/webpack:webpack",
            "outputs": ["{options.outputPath}"],
            "options": {
                "target": "node",
                "compiler": "tsc",
                "outputPath": "dist/apps/el-api",
                "main": "apps/el-api/src/main.ts",
                "tsConfig": "apps/el-api/tsconfig.app.json",
                "assets": [
                    "apps/el-api/src/assets",
                    {
                        "glob": "**/*",
                        "input": "libs/i18n/src/translations",
                        "output": "./assets/i18n"
                    }
                ]
            },
            "configurations": {
                "production": {
                    "optimization": true,
                    "extractLicenses": true,
                    "inspect": false,
                    "fileReplacements": [
                        {
                            "replace": "apps/el-api/src/environments/environment.ts",
                            "with": "apps/el-api/src/environments/environment.prod.ts"
                        }
                    ]
                }
            }
        },
        "serve": {
            "executor": "@nrwl/js:node",
            "options": {
                "buildTarget": "el-api:build"
            },
            "configurations": {
                "production": {
                    "buildTarget": "el-api:build:production"
                }
            }
        },
        "lint": {
            "executor": "@nrwl/linter:eslint",
            "outputs": ["{options.outputFile}"],
            "options": {
                "lintFilePatterns": ["apps/el-api/**/*.ts"]
            }
        },
        "test": {
            "executor": "@nrwl/jest:jest",
            "outputs": ["{workspaceRoot}/coverage/{projectRoot}"],
            "options": {
                "jestConfig": "apps/el-api/jest.config.ts",
                "passWithNoTests": true
            }
        }
    },
    "tags": []
}
